{
  "comments": {
    "description": "Config file for test module",
    "version": "20160413",
    "author": "Arnold Schilham, UMCU"
  },
  "actions": {
    "myFirstTest": {
      "default_displaylevel": 1,
      "params": {
        "some_parameter": {"value": "This is some parameter!", "info": "describe the usage of this parameter in this action"}
        "parent": ["This is child 1", "This is child 2"]
      },
      "filters": {
          "SeriesDescription": "Static", //Typical format
          "0x008,0x1010": "SYMBIA1069", // Test DICOM hexadecimal tuple 
          "AcquisitionTime": "083258.904000", // Test dicom.valuerep.DSfloat
          "Rows": 256 // Test integer value
      }
    }
  }
}
